% $ biblatex auxiliary file $
% $ biblatex bbl format version 2.8 $
% Do not modify the above lines!
%
% This is an auxiliary file used by the 'biblatex' package.
% This file may safely be deleted. It will be recreated by
% biber as required.
%
\begingroup
\makeatletter
\@ifundefined{ver@biblatex.sty}
  {\@latex@error
     {Missing 'biblatex' package}
     {The bibliography requires the 'biblatex' package.}
      \aftergroup\endinput}
  {}
\endgroup


\refsection{0}
  \sortlist[entry]{nty/global/}
    \entry{Gupta:2009:GGV:1519138.1519141}{inproceedings}{}
      \name{author}{7}{}{%
        {{hash=7081aaa27379efa7c909c9207bed3c8e}{%
           family={Gupta},
           familyi={G\bibinitperiod},
           given={Vishakha},
           giveni={V\bibinitperiod}}}%
        {{hash=96f01ec92f8e3085cda5f57652319086}{%
           family={Gavrilovska},
           familyi={G\bibinitperiod},
           given={Ada},
           giveni={A\bibinitperiod}}}%
        {{hash=0d5c574d5be441816608ece8feacb24e}{%
           family={Schwan},
           familyi={S\bibinitperiod},
           given={Karsten},
           giveni={K\bibinitperiod}}}%
        {{hash=3588f84452066ef491baf0ae5db06a60}{%
           family={Kharche},
           familyi={K\bibinitperiod},
           given={Harshvardhan},
           giveni={H\bibinitperiod}}}%
        {{hash=6e3f9c5342c6d54324c2ad219a1b3055}{%
           family={Tolia},
           familyi={T\bibinitperiod},
           given={Niraj},
           giveni={N\bibinitperiod}}}%
        {{hash=cf2b2d46ec61fde57218988677fb0e3b}{%
           family={Talwar},
           familyi={T\bibinitperiod},
           given={Vanish},
           giveni={V\bibinitperiod}}}%
        {{hash=d86fc34f3ab2eed537ffd62d45ef9244}{%
           family={Ranganathan},
           familyi={R\bibinitperiod},
           given={Parthasarathy},
           giveni={P\bibinitperiod}}}%
      }
      \list{location}{1}{%
        {Nuremburg, Germany}%
      }
      \list{publisher}{1}{%
        {ACM}%
      }
      \strng{namehash}{ef99e7fc2616b3a04e9a0852a8de33b1}
      \strng{fullhash}{95f795049488983f3f61571e538ce860}
      \strng{authornamehash}{ef99e7fc2616b3a04e9a0852a8de33b1}
      \strng{authorfullhash}{95f795049488983f3f61571e538ce860}
      \field{sortinit}{G}
      \field{sortinithash}{618d986594b7198ba52cf8b00d348f3f}
      \field{labelnamesource}{author}
      \field{labeltitlesource}{title}
      \field{booktitle}{Proceedings of the 3rd ACM Workshop on System-level Virtualization for High Performance Computing}
      \field{isbn}{978-1-60558-465-2}
      \field{series}{HPCVirt '09}
      \field{title}{GViM: GPU-accelerated Virtual Machines}
      \field{year}{2009}
      \field{pages}{17\bibrangedash 24}
      \range{pages}{8}
      \verb{doi}
      \verb 10.1145/1519138.1519141
      \endverb
      \verb{url}
      \verb http://doi.acm.org/10.1145/1519138.1519141
      \endverb
      \keyw{GPGPU,GViM,amorphous access,split driver model}
    \endentry
    \entry{Harvey:2015:PPA:2814576.2814732}{inproceedings}{}
      \name{author}{3}{}{%
        {{hash=a05ce5021e403f7d6be47cea74939cd4}{%
           family={Harvey},
           familyi={H\bibinitperiod},
           given={Paul},
           giveni={P\bibinitperiod}}}%
        {{hash=7deed237785589ef9163590a09a0e8d6}{%
           family={Hentschel},
           familyi={H\bibinitperiod},
           given={Kristian},
           giveni={K\bibinitperiod}}}%
        {{hash=012a646790b4a7adf8917bd4fd9d3902}{%
           family={Sventek},
           familyi={S\bibinitperiod},
           given={Joseph},
           giveni={J\bibinitperiod}}}%
      }
      \list{location}{1}{%
        {Vancouver, BC, Canada}%
      }
      \list{publisher}{1}{%
        {ACM}%
      }
      \strng{namehash}{d37cc007b241c7ff1687552e690eb6d6}
      \strng{fullhash}{d37cc007b241c7ff1687552e690eb6d6}
      \strng{authornamehash}{d37cc007b241c7ff1687552e690eb6d6}
      \strng{authorfullhash}{d37cc007b241c7ff1687552e690eb6d6}
      \field{sortinit}{H}
      \field{sortinithash}{2f664b453ec75da1fe3804ca92633405}
      \field{labelnamesource}{author}
      \field{labeltitlesource}{title}
      \field{booktitle}{Proceedings of the 16th Annual Middleware Conference}
      \field{isbn}{978-1-4503-3618-5}
      \field{series}{Middleware '15}
      \field{title}{Parallel Programming in Actor-Based Applications via OpenCL}
      \field{year}{2015}
      \field{pages}{162\bibrangedash 172}
      \range{pages}{11}
      \verb{doi}
      \verb 10.1145/2814576.2814732
      \endverb
      \verb{url}
      \verb http://doi.acm.org/10.1145/2814576.2814732
      \endverb
      \keyw{OpenCL,actors,middleware,parallel programming,performance}
    \endentry
    \entry{JPL10}{article}{}
      \name{author}{1}{}{%
        {{hash=4f84ca707ba20e039542ce1a3cf7730a}{%
           family={Holzmann},
           familyi={H\bibinitperiod},
           given={Gerard\bibnamedelima J.},
           giveni={G\bibinitperiod\bibinitdelim J\bibinitperiod}}}%
      }
      \strng{namehash}{4f84ca707ba20e039542ce1a3cf7730a}
      \strng{fullhash}{4f84ca707ba20e039542ce1a3cf7730a}
      \strng{authornamehash}{4f84ca707ba20e039542ce1a3cf7730a}
      \strng{authorfullhash}{4f84ca707ba20e039542ce1a3cf7730a}
      \field{sortinit}{H}
      \field{sortinithash}{2f664b453ec75da1fe3804ca92633405}
      \field{labelnamesource}{author}
      \field{labeltitlesource}{title}
      \field{journaltitle}{NASA/JPL Laboratory for Reliable Software}
      \field{title}{The Power of Ten – Rules for Developing Safety Critical Code}
      \verb{url}
      \verb http://pixelscommander.com/wp-content/uploads/2014/12/P10.pdf
      \endverb
    \endentry
    \entry{Pan:2001:HTV:502217.502244}{inproceedings}{}
      \name{author}{2}{}{%
        {{hash=74a72cc56a0c1364553046da3a9bf42d}{%
           family={Pan},
           familyi={P\bibinitperiod},
           given={Heidi},
           giveni={H\bibinitperiod}}}%
        {{hash=6e7da264d2a1b506dc85ba97a65f086a}{%
           family={Asanović},
           familyi={A\bibinitperiod},
           given={Krste},
           giveni={K\bibinitperiod}}}%
      }
      \list{location}{1}{%
        {Atlanta, Georgia, USA}%
      }
      \list{publisher}{1}{%
        {ACM}%
      }
      \strng{namehash}{d69bfb7d5544c4221bde44dc287c2787}
      \strng{fullhash}{d69bfb7d5544c4221bde44dc287c2787}
      \strng{authornamehash}{d69bfb7d5544c4221bde44dc287c2787}
      \strng{authorfullhash}{d69bfb7d5544c4221bde44dc287c2787}
      \field{sortinit}{P}
      \field{sortinithash}{24100cef455d7974167575052c29146e}
      \field{labelnamesource}{author}
      \field{labeltitlesource}{title}
      \field{booktitle}{Proceedings of the 2001 International Conference on Compilers, Architecture, and Synthesis for Embedded Systems}
      \field{isbn}{1-58113-399-5}
      \field{series}{CASES '01}
      \field{title}{Heads and Tails: A Variable-length Instruction Format Supporting Parallel Fetch and Decode}
      \field{year}{2001}
      \field{pages}{168\bibrangedash 175}
      \range{pages}{8}
      \verb{doi}
      \verb 10.1145/502217.502244
      \endverb
      \verb{url}
      \verb http://doi.acm.org/10.1145/502217.502244
      \endverb
    \endentry
    \entry{ratering2011accelerating}{misc}{}
      \name{author}{2}{}{%
        {{hash=f6d176e860ca56a9bf38d2b20f180e62}{%
           family={Ratering},
           familyi={R\bibinitperiod},
           given={R.},
           giveni={R\bibinitperiod}}}%
        {{hash=1b3fc3aa1b88d0c49e3cb66214068cc5}{%
           family={Hoppe},
           familyi={H\bibinitperiod},
           given={H.C.},
           giveni={H\bibinitperiod}}}%
      }
      \list{publisher}{1}{%
        {Google Patents}%
      }
      \strng{namehash}{b469ee22eb9a0c3500ced6a60dcd9cd6}
      \strng{fullhash}{b469ee22eb9a0c3500ced6a60dcd9cd6}
      \strng{authornamehash}{b469ee22eb9a0c3500ced6a60dcd9cd6}
      \strng{authorfullhash}{b469ee22eb9a0c3500ced6a60dcd9cd6}
      \field{sortinit}{R}
      \field{sortinithash}{c15bc8eb6936bc6b3c8baa9e8575af53}
      \field{labelnamesource}{author}
      \field{labeltitlesource}{title}
      \field{month}{6~30}
      \field{note}{US Patent App. 12/952,405}
      \field{title}{Accelerating opencl applications by utilizing a virtual opencl device as interface to compute clouds}
      \field{year}{2011}
      \verb{url}
      \verb https://www.google.com/patents/US20110161495
      \endverb
    \endentry
    \entry{OpenCLInterpret}{article}{}
      \name{author}{1}{}{%
        {{hash=74183cfdf94007d6c0e24c25e508fce3}{%
           family={Russell},
           familyi={R\bibinitperiod},
           given={George},
           giveni={G\bibinitperiod}}}%
      }
      \strng{namehash}{74183cfdf94007d6c0e24c25e508fce3}
      \strng{fullhash}{74183cfdf94007d6c0e24c25e508fce3}
      \strng{authornamehash}{74183cfdf94007d6c0e24c25e508fce3}
      \strng{authorfullhash}{74183cfdf94007d6c0e24c25e508fce3}
      \field{sortinit}{R}
      \field{sortinithash}{c15bc8eb6936bc6b3c8baa9e8575af53}
      \field{labelnamesource}{author}
      \field{labeltitlesource}{title}
      \field{month}{11}
      \field{title}{OpenCL for Interpreter Implementation.}
      \field{year}{2012}
      \verb{url}
      \verb https://grrussel.bitbucket.io/CompileToOpenCL/CompileToOpenCL.html
      \endverb
    \endentry
    \entry{SPE:SPE2166}{article}{}
      \name{author}{2}{}{%
        {{hash=4e97101ffabec07b459530013b2b3dc8}{%
           family={Tien},
           familyi={T\bibinitperiod},
           given={Tsan-Rong},
           giveni={T\bibinithyphendelim R\bibinitperiod}}}%
        {{hash=9f5a6e59ca15f2a411af7d79bc5ec06a}{%
           family={You},
           familyi={Y\bibinitperiod},
           given={Yi-Ping},
           giveni={Y\bibinithyphendelim P\bibinitperiod}}}%
      }
      \strng{namehash}{586be053165e4a7c386677e1c66ffdfd}
      \strng{fullhash}{586be053165e4a7c386677e1c66ffdfd}
      \strng{authornamehash}{586be053165e4a7c386677e1c66ffdfd}
      \strng{authorfullhash}{586be053165e4a7c386677e1c66ffdfd}
      \field{sortinit}{T}
      \field{sortinithash}{2e5c2f51f7fa2d957f3206819bf86dc3}
      \field{labelnamesource}{author}
      \field{labeltitlesource}{title}
      \field{issn}{1097-024X}
      \field{journaltitle}{Software: Practice and Experience}
      \field{number}{5}
      \field{title}{Enabling OpenCL support for GPGPU in Kernel-based Virtual Machine}
      \field{volume}{44}
      \field{year}{2014}
      \field{pages}{483\bibrangedash 510}
      \range{pages}{28}
      \verb{doi}
      \verb 10.1002/spe.2166
      \endverb
      \verb{url}
      \verb http://dx.doi.org/10.1002/spe.2166
      \endverb
      \keyw{OpenCL,system virtualization,GPU virtualization,KVM,API remoting}
    \endentry
  \endsortlist
\endrefsection
\endinput

